<?xml version="1.0" encoding="UTF-8" standalone="no"?>
<!-- Created with Inkscape (http://www.inkscape.org/) -->

<svg
   xmlns:dc="http://purl.org/dc/elements/1.1/"
   xmlns:cc="http://creativecommons.org/ns#"
   xmlns:rdf="http://www.w3.org/1999/02/22-rdf-syntax-ns#"
   xmlns:svg="http://www.w3.org/2000/svg"
   xmlns="http://www.w3.org/2000/svg"
   xmlns:sodipodi="http://sodipodi.sourceforge.net/DTD/sodipodi-0.dtd"
   xmlns:inkscape="http://www.inkscape.org/namespaces/inkscape"
   width="210mm"
   height="297mm"
   viewBox="0 0 210 297"
   version="1.1"
   id="svg8"
   inkscape:version="0.92.3 (2405546, 2018-03-11)"
   sodipodi:docname="Päckchen.svg">
  <title
     id="title24">Päckchen</title>
  <defs
     id="defs2" />
  <sodipodi:namedview
     id="base"
     pagecolor="#ffffff"
     bordercolor="#666666"
     borderopacity="1.0"
     inkscape:pageopacity="0.0"
     inkscape:pageshadow="2"
     inkscape:zoom="0.7"
     inkscape:cx="-346.88449"
     inkscape:cy="687.60604"
     inkscape:document-units="mm"
     inkscape:current-layer="layer2"
     showgrid="false"
     inkscape:snap-bbox="true"
     inkscape:bbox-paths="true"
     inkscape:bbox-nodes="false"
     inkscape:object-nodes="true"
     inkscape:snap-smooth-nodes="true"
     inkscape:object-paths="false"
     showguides="true"
     inkscape:guide-bbox="true"
     inkscape:snap-to-guides="true"
     inkscape:measure-start="151.182,968.059"
     inkscape:measure-end="642.52,968.059"
     inkscape:window-width="2880"
     inkscape:window-height="1466"
     inkscape:window-x="0"
     inkscape:window-y="54"
     inkscape:window-maximized="1"
     inkscape:snap-intersection-paths="true"
     inkscape:snap-page="true" />
  <metadata
     id="metadata5">
    <rdf:RDF>
      <cc:Work
         rdf:about="">
        <dc:format>image/svg+xml</dc:format>
        <dc:type
           rdf:resource="http://purl.org/dc/dcmitype/StillImage" />
        <dc:title>Päckchen</dc:title>
        <dc:date>4.4.2020</dc:date>
        <dc:creator>
          <cc:Agent>
            <dc:title>Markus Casser</dc:title>
          </cc:Agent>
        </dc:creator>
        <dc:rights>
          <cc:Agent>
            <dc:title>CC-BY-SH</dc:title>
          </cc:Agent>
        </dc:rights>
        <dc:publisher>
          <cc:Agent>
            <dc:title>Markus Casser</dc:title>
          </cc:Agent>
        </dc:publisher>
        <dc:description>Dieses Dokument gehört zu einem Set von Hilfsmitteln, um behelfsmundschütze einfacher und schneller herzustellen.
Es dient dazu den Munduschutz zu fixieren, bis die Falten vernäht sind.</dc:description>
        <cc:license
           rdf:resource="http://creativecommons.org/licenses/by-sa/4.0/" />
      </cc:Work>
      <cc:License
         rdf:about="http://creativecommons.org/licenses/by-sa/4.0/">
        <cc:permits
           rdf:resource="http://creativecommons.org/ns#Reproduction" />
        <cc:permits
           rdf:resource="http://creativecommons.org/ns#Distribution" />
        <cc:requires
           rdf:resource="http://creativecommons.org/ns#Notice" />
        <cc:requires
           rdf:resource="http://creativecommons.org/ns#Attribution" />
        <cc:permits
           rdf:resource="http://creativecommons.org/ns#DerivativeWorks" />
        <cc:requires
           rdf:resource="http://creativecommons.org/ns#ShareAlike" />
      </cc:License>
    </rdf:RDF>
  </metadata>
  <g
     inkscape:label="cut"
     inkscape:groupmode="layer"
     id="layer1"
     style="display:inline"
     sodipodi:insensitive="true">
    <g
       id="g844"
       transform="translate(-40.000142,-40.86779)"
       style="opacity:0.97000002">
      <path
         id="rect815"
         transform="scale(0.26458333)"
         d="M 151.18164,154.46094 V 230.05078 479.5 v 642.5195 75.5899 h 491.33789 v -75.5899 h 0.5 V 479.5 h -0.5 V 230.05078 154.46094 h -75.58984 v 75.58984 H 491.33984 302.36328 v -0.25586 h -75.33594 v -75.33398 z"
         style="fill:none;fill-opacity:1;fill-rule:evenodd;stroke:#000000;stroke-width:1.00157475;stroke-miterlimit:4;stroke-dasharray:none;stroke-opacity:1"
         inkscape:connector-curvature="0" />
      <path
         inkscape:connector-curvature="0"
         id="path904"
         d="m 40.000142,296.86766 h 20"
         style="fill:none;fill-rule:evenodd;stroke:#000000;stroke-width:0.18708867px;stroke-linecap:butt;stroke-linejoin:miter;stroke-opacity:1" />
      <path
         style="fill:none;fill-rule:evenodd;stroke:#000000;stroke-width:0.18708867px;stroke-linecap:butt;stroke-linejoin:miter;stroke-opacity:1"
         d="m 150.13225,296.86766 h 20"
         id="path906"
         inkscape:connector-curvature="0" />
    </g>
  </g>
  <g
     inkscape:groupmode="layer"
     id="layer2"
     inkscape:label="Berge"
     style="display:inline">
    <path
       style="opacity:0.97000002;fill:none;fill-rule:evenodd;stroke:#00ff00;stroke-width:0.26458332px;stroke-linecap:butt;stroke-linejoin:miter;stroke-opacity:1"
       d="M 129.99986,100.00025 H -1.4274606e-4"
       id="path835"
       inkscape:connector-curvature="0" />
    <path
       style="opacity:0.97000002;fill:none;fill-rule:evenodd;stroke:#00ff00;stroke-width:0.26458332px;stroke-linecap:butt;stroke-linejoin:miter;stroke-opacity:1"
       d="M 129.99986,139.00025 H -1.4274606e-4"
       id="path837"
       inkscape:connector-curvature="0" />
    <path
       style="opacity:0.97000002;fill:none;fill-rule:evenodd;stroke:#00ff00;stroke-width:0.26458332px;stroke-linecap:butt;stroke-linejoin:miter;stroke-opacity:1"
       d="M 129.99986,178.00025 H -1.4274606e-4"
       id="path839"
       inkscape:connector-curvature="0" />
    <path
       style="opacity:0.97000002;fill:none;fill-rule:evenodd;stroke:#00ff00;stroke-width:0.26458332px;stroke-linecap:butt;stroke-linejoin:miter;stroke-opacity:1"
       d="M 129.99986,217.00025 H -1.4274606e-4"
       id="path841"
       inkscape:connector-curvature="0" />
  </g>
  <g
     inkscape:groupmode="layer"
     id="layer3"
     inkscape:label="tähler"
     style="display:inline"
     sodipodi:insensitive="true">
    <path
       style="opacity:0.97000002;fill:none;fill-rule:evenodd;stroke:#ff0000;stroke-width:0.26458332px;stroke-linecap:butt;stroke-linejoin:miter;stroke-opacity:1"
       d="M 129.99986,113.00025 H -1.4274606e-4"
       id="path843"
       inkscape:connector-curvature="0" />
    <path
       style="opacity:0.97000002;fill:none;fill-rule:evenodd;stroke:#ff0000;stroke-width:0.26458332px;stroke-linecap:butt;stroke-linejoin:miter;stroke-opacity:1"
       d="M 129.99986,152.00025 H -1.4274606e-4"
       id="path845"
       inkscape:connector-curvature="0" />
    <path
       style="opacity:0.97000002;fill:none;fill-rule:evenodd;stroke:#ff0000;stroke-width:0.26458332px;stroke-linecap:butt;stroke-linejoin:miter;stroke-opacity:1"
       d="M 129.99986,191.00025 H -1.4274606e-4"
       id="path847"
       inkscape:connector-curvature="0" />
    <path
       style="opacity:0.97000002;fill:none;fill-rule:evenodd;stroke:#ff0000;stroke-width:0.26458332px;stroke-linecap:butt;stroke-linejoin:miter;stroke-opacity:1"
       d="M 129.99986,230.00024 H -1.4274606e-4"
       id="path849"
       inkscape:connector-curvature="0" />
    <path
       style="opacity:0.97000002;fill:none;fill-rule:evenodd;stroke:#ff0000;stroke-width:0.26458332px;stroke-linecap:butt;stroke-linejoin:miter;stroke-opacity:1"
       d="M 2.539388e-7,85.99991 H 129.99999"
       id="path898"
       inkscape:connector-curvature="0" />
  </g>
</svg>
